{
  "logoUrl": "https://ytmedia.radio.cn/CCYT%2F202012%2F25%2F17%2FNbAmmPsTe5yiril5wmVPebi75mIGxe95iQs2LiEbCz6wdcFCS202012251792.jpg",
  "columnName": "三体（多人有声剧）",
  "isSubscribe": 0,
  "subscribeId": null,
  "providerCode": 25010,
  "providerName": "本台",
  "columnId": "16085240010490",
  "collect": -1,
  "descriptions": "\u003cp\u003e【获奖通知】\u003c/p\u003e\u003cp\u003e恭喜以下30位用户众成为4月《三体》互动活动幸运儿~\u003c/p\u003e\u003cp\u003eytvRjoZlol、凿凿、窝在被窝里听…、新尝试、东东、许门弟子--托托、兰语心扉、ytQPPtvlkz、Harry、叫我宝宝曹、吃口苦瓜压压惊、独聚慧言、ytynNzlsKf、白露、bing2008、ytTuhxxoVp、爱吃莲藕烧小..、木恋春、云天明与程心、种花家的兔崽子、花雕、ytaXrdiYVr、向日葵、ytqzCnUIRg、绿色曼陀罗、ytESvutvLL、北和、Audrey君、Summer、ytWdpZNmpD\u003c/p\u003e\u003cp\u003e您可获得云听编著的《节气手帐》+VIP年卡+您为《三体》支付过的全部云币~\u003c/p\u003e\u003cp\u003e【领奖方式】\u003c/p\u003e\u003cp\u003e请在5月21日前，添加云听客服微信：yuntingkefu。\u003c/p\u003e\u003cp\u003e添加好友时，请在验证申请理由中备注【三体互动中奖】，以便客服与您尽快取得联系。\u003c/p\u003e\u003cp\u003e逾期未与客服取得联系者，则视为自动放弃获奖机会！\u003c/p\u003e\u003cp\u003e【补充说明】\u003c/p\u003e\u003cp\u003e1. 《节气手帐》为兑换券形式，需要您移步“云听商城”领取。\u003c/p\u003e\u003cp\u003e2. 云币返还：需向“云听客服“提供您云听账户绑定的手机号，以便统计您为《三体》支付过的全部云币，并100%返币至您的云币账户（每名幸运用户限提供一个手机号）。\u003c/p\u003e\u003cp\u003e3. 本轮奖品发放、云听权益和云币返赠工作，将在6月15日前全部完成。\u003c/p\u003e\u003cp\u003e\u003cimg src\u003d\"https://ytmedia.radio.cn/CCYT%2F202110%2F15%2F19%2Fq0hlDjw0oPjFn2021101519938.jpg\" title\u003d\"图层1.jpg\" alt\u003d\"图层1.jpg.jpg\" style\u003d\"width: 750px; height: 744px;\"/\u003e\u003cimg src\u003d\"https://ytmedia.radio.cn/CCYT%2F202110%2F15%2F19%2Fv1Mgb3t85rtxXWr7WhrnagS2021101519845.jpg\" title\u003d\"图层2.jpg\" alt\u003d\"图层2.jpg.jpg\" style\u003d\"width: 750px; height: 720px;\"/\u003e\u003cimg src\u003d\"https://ytmedia.radio.cn/CCYT%2F202110%2F15%2F19%2Fjm5al7l8zeJzDNJ8uLd3dedR2021101519511.jpg\" title\u003d\"图层3.jpg\" alt\u003d\"图层3.jpg.jpg\" style\u003d\"width: 750px; height: 676px;\"/\u003e\u003cimg src\u003d\"https://ytmedia.radio.cn/CCYT%2F202110%2F15%2F19%2FO42021101519377.jpg\" title\u003d\"图层4.jpg\" alt\u003d\"图层4.jpg.jpg\" style\u003d\"width: 750px; height: 395px;\"/\u003e\u003cimg src\u003d\"https://ytmedia.radio.cn/CCYT%2F202110%2F15%2F19%2FGXSl4r1aiDYdATOfg2Sfk50BhHIYAaZYId2021101519224.jpg\" title\u003d\"图层5.jpg\" alt\u003d\"图层5.jpg.jpg\" style\u003d\"width: 750px; height: 676px;\"/\u003e\u003cimg src\u003d\"https://ytmedia.radio.cn/CCYT%2F202110%2F15%2F19%2FrUbCrgYnHjaS6mfi8bJ09T2i7k202110151959.jpg\" title\u003d\"图层6.jpg\" alt\u003d\"图层6.jpg.jpg\" style\u003d\"width: 750px; height: 323px;\"/\u003e\u003cimg src\u003d\"https://ytmedia.radio.cn/CCYT%2F202110%2F15%2F19%2FRGs2aqrJDs1tIFfguqCMtX3ETMmpGwtevQ3QnmqGXr1lY2021101519485.jpg\" title\u003d\"图层7.jpg\" alt\u003d\"图层7.jpg.jpg\" style\u003d\"width: 750px; height: 677px;\"/\u003e\u003cimg src\u003d\"https://ytmedia.radio.cn/CCYT%2F202110%2F15%2F19%2FWzeWYgiuIxaxQTqE7ADmOn7mN4V2021101519118.jpg\" title\u003d\"图层8.jpg\" alt\u003d\"图层8.jpg.jpg\" style\u003d\"width: 750px; height: 309px;\"/\u003e\u003cimg src\u003d\"https://ytmedia.radio.cn/CCYT%2F202110%2F15%2F19%2FMBDPjU9B7j1scOALiNz9UfWO3W9Yt15tw5tmDXIXL2021101519295.jpg\" title\u003d\"图层9.jpg\" alt\u003d\"图层9.jpg.jpg\" style\u003d\"width: 750px; height: 706px;\"/\u003e\u003cimg src\u003d\"https://ytmedia.radio.cn/CCYT%2F202110%2F15%2F19%2FjOG9Y2LRR8boOTQN7CKs0BHm1Om13r202110151978.jpg\" title\u003d\"图层10.jpg\" alt\u003d\"图层10.jpg.jpg\" style\u003d\"width: 750px; height: 558px;\"/\u003e\u003cimg src\u003d\"https://ytmedia.radio.cn/CCYT%2F202110%2F15%2F19%2F2021101519431.jpg\" title\u003d\"图层11.jpg\" alt\u003d\"图层11.jpg.jpg\" style\u003d\"width: 750px; height: 559px;\"/\u003e\u003cimg src\u003d\"https://ytmedia.radio.cn/CCYT%2F202110%2F15%2F19%2FFu9Q0oQVIOoqbOEpS8sT4iZACuUAK299v3XZXW2021101519595.jpg\" title\u003d\"图层12.jpg\" alt\u003d\"图层12.jpg.jpg\" style\u003d\"width: 750px; height: 566px;\"/\u003e\u003cimg src\u003d\"https://ytmedia.radio.cn/CCYT%2F202110%2F15%2F19%2FtdY4WibgLzVyrIMkPgPdObNThV85p7hyNd3m83s9j8dma62021101519414.jpg\" title\u003d\"图层13.jpg\" alt\u003d\"图层13.jpg.jpg\" style\u003d\"width: 750px; height: 715px;\"/\u003e\u003cimg src\u003d\"https://ytmedia.radio.cn/CCYT%2F202110%2F15%2F19%2FywIKVNEKkTUIUbHlGEBR2021101519115.jpg\" title\u003d\"图层14.jpg\" alt\u003d\"图层14.jpg.jpg\" style\u003d\"width: 750px; height: 676px;\"/\u003e\u003cimg src\u003d\"https://ytmedia.radio.cn/CCYT%2F202110%2F15%2F19%2F8O9EOffVfx69ipwLrOhbeL9Dx4BXMp6F7ghd60Ga1TFZuLKl2021101519569.jpg\" title\u003d\"图层15.jpg\" alt\u003d\"图层15.jpg.jpg\" style\u003d\"width: 750px; height: 685px;\"/\u003e\u003cimg src\u003d\"https://ytmedia.radio.cn/CCYT%2F202110%2F15%2F19%2FmjN2021101519545.jpg\" title\u003d\"图层16.jpg\" alt\u003d\"图层16.jpg.jpg\" style\u003d\"width: 750px; height: 649px;\"/\u003e\u003cimg src\u003d\"https://ytmedia.radio.cn/CCYT%2F202110%2F15%2F19%2F5H6mZ2021101519827.jpg\" title\u003d\"图层17.jpg\" alt\u003d\"图层17.jpg.jpg\" style\u003d\"width: 750px; height: 626px;\"/\u003e\u003cimg src\u003d\"https://ytmedia.radio.cn/CCYT%2F202110%2F15%2F19%2FsE0v2021101519833.jpg\" title\u003d\"图层18.jpg\" alt\u003d\"图层18.jpg.jpg\" style\u003d\"width: 750px; height: 650px;\"/\u003e\u003cimg src\u003d\"https://ytmedia.radio.cn/CCYT%2F202110%2F15%2F19%2F2021101519388.jpg\" title\u003d\"图层19.jpg\" alt\u003d\"图层19.jpg.jpg\" style\u003d\"width: 750px; height: 625px;\"/\u003e\u003cimg src\u003d\"https://ytmedia.radio.cn/CCYT%2F202110%2F15%2F19%2FRhWw0TNqZuwNI0EAsJAZYJ2ebXvFoKD0uK3jgOg2021101519532.jpg\" title\u003d\"图层20.jpg\" alt\u003d\"图层20.jpg.jpg\" style\u003d\"width: 750px; height: 607px;\"/\u003e\u003cimg src\u003d\"https://ytmedia.radio.cn/CCYT%2F202110%2F15%2F19%2FyAzPpQQHVeV2021101519795.jpg\" title\u003d\"图层21.jpg\" alt\u003d\"图层21.jpg.jpg\" style\u003d\"width: 750px; height: 548px;\"/\u003e\u003cimg src\u003d\"https://ytmedia.radio.cn/CCYT%2F202110%2F15%2F19%2Fl1qJ1ONR2021101519822.jpg\" title\u003d\"图层22.jpg\" alt\u003d\"图层22.jpg.jpg\" style\u003d\"width: 750px; height: 718px;\"/\u003e\u003cbr/\u003e\u003c/p\u003e",
  "listenNum": 31041235,
  "replyNum": 3,
  "anchorpersons": "云听声工厂制作人李东小曾",
  "discountedPrice": null,
  "originalPrice": null,
  "discountedPriceV": null,
  "originalPriceV": null,
  "isExpired": 0,
  "expireTime": 0,
  "isPurchased": 0,
  "needPay": 0,
  "anchorpersonList": [{
    "id": "4803200",
    "anchorpersonId": "502",
    "anchorpersonName": "云听声工厂",
    "anchorpersonPic": "https://ytmedia.radio.cn/CCYT%2F202002%2F26%2F15%2FDxa6h4MMUY1CMvnl6kjZkzoO6zlQCgCjx6ygw2DOqZIwr2020022615670.jpg",
    "bgUrl": null,
    "fansNickName": null,
    "fansNum": 0,
    "isFollow": 0,
    "levelIcon": null,
    "ifHasLive": 0,
    "broadcastModel": null,
    "interactiveModelType": null,
    "anchorzoneModelType": null,
    "broadcastName": null,
    "broadcastId": null,
    "switchStatus": null,
    "focusIcon": null,
    "unfocusIcon": null,
    "isAnchorPerson": "1",
    "downDes": "云听声工厂是云听官方频道，融合中央广播电视总台优势资源，打造优质声音产品，严选精品内容。",
    "hostTotal": 21758,
    "descriptionSimple": null,
    "shareUrl": null,
    "roleNameForAlbum": "制作人",
    "liveStatus": 0,
    "liveId": null,
    "isPugcAnchor": 0,
    "accid": "2501020100078816",
    "authType": 3,
    "liveRoomId": null,
    "liveRoomName": null,
    "startTime": null,
    "orderLiveRoomFlag": null,
    "bookType": null
  }, {
    "id": "4803201",
    "anchorpersonId": "1365",
    "anchorpersonName": "制作人李东",
    "anchorpersonPic": "https://ytmedia.radio.cn/CCYT%2F202109%2F24%2F09%2FjPkRdECPQn2021092409305.jpg",
    "bgUrl": null,
    "fansNickName": null,
    "fansNum": 0,
    "isFollow": 0,
    "levelIcon": null,
    "ifHasLive": 0,
    "broadcastModel": null,
    "interactiveModelType": null,
    "anchorzoneModelType": null,
    "broadcastName": null,
    "broadcastId": null,
    "switchStatus": null,
    "focusIcon": null,
    "unfocusIcon": null,
    "isAnchorPerson": "1",
    "downDes": "中央广播电视总台云听制作人。主要作品：《三体》《星落凝成糖》《昔有琉璃瓦》《亲爱的你呀》《静静出逃记》《解连环》《七零娇气美人》等。",
    "hostTotal": 343,
    "descriptionSimple": null,
    "shareUrl": null,
    "roleNameForAlbum": "制作人",
    "liveStatus": 0,
    "liveId": null,
    "isPugcAnchor": 0,
    "accid": null,
    "authType": 0,
    "liveRoomId": null,
    "liveRoomName": null,
    "startTime": null,
    "orderLiveRoomFlag": null,
    "bookType": null
  }, {
    "id": "4803202",
    "anchorpersonId": "323",
    "anchorpersonName": "小曾",
    "anchorpersonPic": "https://ytmedia.radio.cn/CCYT%2F202004%2F23%2F17%2Fm2020042317302.jpg",
    "bgUrl": null,
    "fansNickName": null,
    "fansNum": 0,
    "isFollow": 0,
    "levelIcon": null,
    "ifHasLive": 0,
    "broadcastModel": null,
    "interactiveModelType": null,
    "anchorzoneModelType": null,
    "broadcastName": null,
    "broadcastId": null,
    "switchStatus": null,
    "focusIcon": null,
    "unfocusIcon": null,
    "isAnchorPerson": "1",
    "downDes": "中央广播电视总台央广演播人、主持人、制作人，主要作品：《长相思》《三生三世十里桃花》《如果蜗牛有爱情》《匆匆那年》《蜗居》《奋斗》《杜拉拉升职记》等。",
    "hostTotal": 18296,
    "descriptionSimple": null,
    "shareUrl": null,
    "roleNameForAlbum": "导演",
    "liveStatus": 0,
    "liveId": null,
    "isPugcAnchor": 0,
    "accid": null,
    "authType": 3,
    "liveRoomId": null,
    "liveRoomName": null,
    "startTime": null,
    "orderLiveRoomFlag": null,
    "bookType": null
  }],
  "listenType": 0,
  "expireDate": null,
  "albumCollection": null,
  "descriptionSimple": "云听声工厂年度巨制",
  "columnAnchorInfo": {
    "id": "15037",
    "anchorpersonId": "916",
    "anchorpersonName": "读客熊猫君",
    "anchorpersonPic": "https://ytmedia.radio.cn/CCYT%2F202008%2F19%2F13%2FOYIphXBJ29eZ7U8NhGoDy5fgMrXpX7HwWYAC3d2020081913814.jpg",
    "bgUrl": null,
    "fansNickName": null,
    "fansNum": 0,
    "isFollow": 0,
    "levelIcon": null,
    "ifHasLive": 0,
    "broadcastModel": null,
    "interactiveModelType": null,
    "anchorzoneModelType": null,
    "broadcastName": null,
    "broadcastId": null,
    "switchStatus": null,
    "focusIcon": null,
    "unfocusIcon": null,
    "isAnchorPerson": "2",
    "downDes": "读客文化，中国书业品牌影响力领先、营销模式领先、生产方式领先的专业出版机构。连续推出《藏地密码》《侯大利刑侦笔记》《岛上书店》《无声告白》《大江大河》等百万畅销书",
    "hostTotal": 296,
    "descriptionSimple": "激发个人成长",
    "shareUrl": null,
    "roleNameForAlbum": "归属人",
    "liveStatus": 0,
    "liveId": null,
    "isPugcAnchor": 0,
    "accid": null,
    "authType": 2,
    "liveRoomId": null,
    "liveRoomName": null,
    "startTime": null,
    "orderLiveRoomFlag": null,
    "bookType": null
  },
  "expire": 0,
  "expireStart": "2020-12-27 00:00:00",
  "expireEnd": "2023-07-13 23:59:59",
  "isOver": 0,
  "contentType": 2,
  "songNeedPay": 1,
  "containAuditionSong": 1,
  "hadPurchasedSong": 0,
  "notPurchasedSongCount": 239,
  "pubstate": 1,
  "posterInfo": {
    "id": 16085240010490,
    "type": 0,
    "imgUrl": "https://ytmedia.radio.cn/CCYT%2F202012%2F25%2F17%2FNbAmmPsTe5yiril5wmVPebi75mIGxe95iQs2LiEbCz6wdcFCS202012251792.jpg",
    "title": "三体（多人有声剧）",
    "describe": "云听声工厂年度巨制",
    "source": null,
    "color": null,
    "createTime": null,
    "channelImgUrl": null,
    "contentType": 0,
    "description": null
  },
  "chechStatus": 1,
  "historyPo": {
    "id": null,
    "columnId": 16085240010490,
    "price": null,
    "needPay": null,
    "songNeedPay": null,
    "startTime": null,
    "endTime": null,
    "operation": null,
    "reviewer": null,
    "states": null,
    "reviewerTime": null,
    "reviewerReason": null,
    "note": null,
    "charge": null,
    "applicationTime": null,
    "expiretime": null,
    "sharefreenum": null,
    "oldPrice": null,
    "oldCharge": null,
    "promotionType": 1,
    "promotionStaTime": null,
    "promotionEndTime": null,
    "planShowNum": null,
    "promotionPrice": null
  },
  "foreverHear": 1,
  "canLode": 1,
  "commentStatus": 0,
  "shareFreeNum": 0,
  "atypeInfo": [{
    "categoryName": "听书专区",
    "categoryId": 61
  }, {
    "categoryName": "小说",
    "categoryId": 134
  }, {
    "categoryName": "幻想",
    "categoryId": 144
  }, {
    "categoryName": "名家",
    "categoryId": 184
  }, {
    "categoryName": "听剧",
    "categoryId": 238
  }, {
    "categoryName": "科幻剧",
    "categoryId": 254
  }, {
    "categoryName": "多人有声剧",
    "categoryId": 404
  }],
  "updateTime": "2022-06-28 14:27:44",
  "type": "6",
  "sortType": 1,
  "coverLong": null,
  "coverSquare": null,
  "isVip": 0,
  "shareUrl": "https://ytweb.radio.cn/share/albumDetail?columnId\u003d16085240010490",
  "subscribeNum": 49469,
  "ownerNickName": "读客熊猫君",
  "ownerIcon": "https://ytmedia.radio.cn/CCYT%2F202008%2F19%2F13%2FOYIphXBJ29eZ7U8NhGoDy5fgMrXpX7HwWYAC3d2020081913814.jpg",
  "totalPage": 14,
  "count": 261,
  "currentPage": 13,
  "perPage": 20,
  "con": [{
    "id": "1469591",
    "name": "260三体Ⅲ-【时间之外】我们的宇宙（大结局）",
    "index": 261,
    "providerName": "本台",
    "playUrl": "https://ytmedia.radio.cn/CCYT%2F2021%2F05%2F01%2F1619863768ed9a606233c37538be93d110d9f4611al.mp3",
    "playUrlHigh": "https://ytmedia.radio.cn/CCYT%2F2021%2F05%2F01%2F1619863768ed9a606233c37538be93d110d9f4611ah.mp3",
    "artist": null,
    "listenNum": 85554,
    "replyNum": 344,
    "logoUrl": "https://ytmedia.radio.cn/CCYT%2F202012%2F25%2F17%2FNbAmmPsTe5yiril5wmVPebi75mIGxe95iQs2LiEbCz6wdcFCS202012251792.jpg",
    "songLogo": null,
    "isCollect": 1,
    "anchorperson": null,
    "anchorpersonList": null,
    "columnId": "16085240010490",
    "duration": "19:24",
    "columnName": null,
    "columnLogo": null,
    "descriptionSimple": null,
    "ifDownload": 1,
    "isPraise": 0,
    "praiseCount": null,
    "isAudition": 0,
    "isExpired": 0,
    "isPurchased": 0,
    "needPay": 0,
    "listenType": 0,
    "promotionType": 1,
    "shareFreeNum": null,
    "createTime": "2021-05-01 18:09:31",
    "publishTime": null,
    "downloadUrl": "https://ytmedia.radio.cn/CCYT%2F2021%2F05%2F01%2F1619863768ed9a606233c37538be93d110d9f4611al.mp3",
    "fileSize": "9315748",
    "playUrlMedium": "https://ytmedia.radio.cn/CCYT%2F2021%2F05%2F01%2F1619863768ed9a606233c37538be93d110d9f4611ah.mp3",
    "coverLong": null,
    "coverSquare": null,
    "sDescription": "",
    "isVip": 0,
    "shareUrl": null,
    "expire": 0,
    "expireStart": null,
    "expireEnd": null,
    "subscribeTime": null,
    "startTime": null,
    "endTime": null,
    "contentType": 0,
    "albumContentType": 0,
    "albumDescription": null,
    "columnPubState": 1,
    "songPubState": 1,
    "columnCheckStatus": 1,
    "songCheckStatus": 1,
    "songDeleteStatus": null,
    "songVirtualPrice": 0.50,
    "songNeedPay": 1,
    "isSongPurchased": 0,
    "songId": null,
    "topState": null,
    "shareLogo": null,
    "radioLogo": null,
    "portraitPath": null,
    "horizontalPath": null,
    "vehiclePath": null,
    "topPath": null,
    "newsContentUrl": null,
    "radioId": null,
    "radioName": null,
    "headLogo": null,
    "backColor": null,
    "tags": null,
    "classificationPath": null,
    "classificationName": null,
    "classificationId": null,
    "newsSource": null,
    "tagList": null,
    "announcer": null,
    "editor": null,
    "userNewsWeight": null,
    "playUrlEncode": "https://ytmedia.radio.cn/CCYT%2F2021%2F05%2F01%2F1619863768ed9a606233c37538be93d110d9f4611al.mp3",
    "playUrlHighEncode": "https://ytmedia.radio.cn/CCYT%2F2021%2F05%2F01%2F1619863768ed9a606233c37538be93d110d9f4611ah.mp3",
    "encodeStatus": 2,
    "resourceType": 10
  }],
  "rt": 1,
  "des": "获取成功"
}
