{
	"logoUrl": "https://ytmedia.radio.cn/CCYT%2F202104%2F09%2F18%2FDX2021040918851.jpg",
	"columnName": "斗罗大陆2绝世唐门",
	"isSubscribe": 0,
	"subscribeId": null,
	"providerCode": 25010,
	"providerName": "本台",
	"columnId": "16179401055300",
	"collect": -1,
	"descriptions": "\u003cp\u003e斗罗1传送门：\u003ca href\u003d\"cmgyunting://yunting.albumplay?albumId\u003d15682090498895\u0026albumTrackId\u003d639335\" target\u003d\"_self\" title\u003d\"《斗罗大陆1》\"\u003e《斗罗大陆1》\u003c/a\u003e 满超 杨婧/演播\u0026nbsp; \u0026nbsp;\u0026nbsp;\u003c/p\u003e\u003cp\u003e\u003cimg src\u003d\"https://ytmedia.radio.cn/CCYT%2F202110%2F09%2F01%2FRjcL21Pu2gAcEyaHM0HvvAR72021100901997.jpg\" title\u003d\"图层1.jpg\" alt\u003d\"图层1.jpg.jpg\" style\u003d\"width: 750px; height: 654px;\"/\u003e\u003cimg src\u003d\"https://ytmedia.radio.cn/CCYT%2F202110%2F09%2F01%2FYrRlySXPSpbVNy16UfnngsIu8JAWo2021100901785.jpg\" title\u003d\"图层2.jpg\" alt\u003d\"图层2.jpg.jpg\" style\u003d\"width: 750px; height: 595px;\"/\u003e\u003cimg src\u003d\"https://ytmedia.radio.cn/CCYT%2F202110%2F09%2F01%2FI62021100901419.jpg\" title\u003d\"图层3.jpg\" alt\u003d\"图层3.jpg.jpg\" style\u003d\"width: 750px; height: 719px;\"/\u003e\u003cimg src\u003d\"https://ytmedia.radio.cn/CCYT%2F202110%2F09%2F01%2Fnu14xhKhnaHE42n972IrnXmwlvsMiqaSPrgtphzAbz3xw2021100901988.jpg\" title\u003d\"图层4.jpg\" alt\u003d\"图层4.jpg.jpg\" style\u003d\"width: 750px; height: 697px;\"/\u003e\u003cimg src\u003d\"https://ytmedia.radio.cn/CCYT%2F202110%2F09%2F01%2F2021100901485.jpg\" title\u003d\"图层5.jpg\" alt\u003d\"图层5.jpg.jpg\" style\u003d\"width: 750px; height: 646px;\"/\u003e\u003cimg src\u003d\"https://ytmedia.radio.cn/CCYT%2F202110%2F09%2F01%2FyCVKoPU2021100901926.jpg\" title\u003d\"图层6.jpg\" alt\u003d\"图层6.jpg.jpg\" style\u003d\"width: 750px; height: 602px;\"/\u003e\u003cimg src\u003d\"https://ytmedia.radio.cn/CCYT%2F202110%2F09%2F01%2FwDpTWUg2021100901299.jpg\" title\u003d\"图层7.jpg\" alt\u003d\"图层7.jpg.jpg\" style\u003d\"width: 750px; height: 638px;\"/\u003e\u003cimg src\u003d\"https://ytmedia.radio.cn/CCYT%2F202110%2F09%2F01%2FFV7yDxrQ4cYC1pqsQR1exfWg2021100901678.jpg\" title\u003d\"图层8.jpg\" alt\u003d\"图层8.jpg.jpg\" style\u003d\"width: 750px; height: 707px;\"/\u003e\u003cimg src\u003d\"https://ytmedia.radio.cn/CCYT%2F202110%2F09%2F01%2FQCwcWG27K3BUn10HeeGivB9A569jEqcpodmAKoS0bpXwNh2021100901967.jpg\" title\u003d\"图层9.jpg\" alt\u003d\"图层9.jpg.jpg\" style\u003d\"width: 750px; height: 685px;\"/\u003e\u003cimg src\u003d\"https://ytmedia.radio.cn/CCYT%2F202110%2F09%2F01%2Fjvuo6W1FmEWjPXyNCHxksghoiBPExXrUtW2FoFEP6e64p2021100901384.jpg\" title\u003d\"图层10.jpg\" alt\u003d\"图层10.jpg.jpg\" style\u003d\"width: 750px; height: 662px;\"/\u003e\u003cimg src\u003d\"https://ytmedia.radio.cn/CCYT%2F202110%2F09%2F01%2FWIYvE1CGCkIkswpAhKRbp2021100901270.jpg\" title\u003d\"图层11.jpg\" alt\u003d\"图层11.jpg.jpg\" style\u003d\"width: 750px; height: 633px;\"/\u003e\u0026nbsp; \u0026nbsp; \u0026nbsp; \u0026nbsp; \u0026nbsp; \u0026nbsp; \u0026nbsp; \u0026nbsp; \u0026nbsp; \u0026nbsp; \u0026nbsp; \u0026nbsp; \u0026nbsp; \u0026nbsp; \u0026nbsp; \u0026nbsp;\u003c/p\u003e",
	"listenNum": 63717135,
	"replyNum": 1,
	"anchorpersons": "秋实云听声工厂",
	"discountedPrice": null,
	"originalPrice": null,
	"discountedPriceV": null,
	"originalPriceV": null,
	"isExpired": 0,
	"expireTime": 0,
	"isPurchased": 0,
	"needPay": 0,
	"anchorpersonList": [{
		"id": "4829007",
		"anchorpersonId": "1364",
		"anchorpersonName": "秋实",
		"anchorpersonPic": "https://ytmedia.radio.cn/CCYT%2F202109%2F24%2F09%2F0ZhBUAM3sUSLQZVgcQZMZAeTnPZj2021092409376.jpg",
		"bgUrl": null,
		"fansNickName": null,
		"fansNum": 0,
		"isFollow": 0,
		"levelIcon": null,
		"ifHasLive": 0,
		"broadcastModel": null,
		"interactiveModelType": null,
		"anchorzoneModelType": null,
		"broadcastName": null,
		"broadcastId": null,
		"switchStatus": null,
		"focusIcon": null,
		"unfocusIcon": null,
		"isAnchorPerson": "1",
		"downDes": "中央广播电视总台制作人。主要作品《斗罗大陆2绝世唐门》《狄仁杰之绝地旱魃》《女世子》《背光而生》等。",
		"hostTotal": 246,
		"descriptionSimple": null,
		"shareUrl": null,
		"roleNameForAlbum": "制作人",
		"liveStatus": 0,
		"liveId": null,
		"isPugcAnchor": 0,
		"accid": null,
		"authType": 0
	}, {
		"id": "4829008",
		"anchorpersonId": "502",
		"anchorpersonName": "云听声工厂",
		"anchorpersonPic": "https://ytmedia.radio.cn/CCYT%2F202002%2F26%2F15%2FDxa6h4MMUY1CMvnl6kjZkzoO6zlQCgCjx6ygw2DOqZIwr2020022615670.jpg",
		"bgUrl": null,
		"fansNickName": null,
		"fansNum": 0,
		"isFollow": 0,
		"levelIcon": null,
		"ifHasLive": 0,
		"broadcastModel": null,
		"interactiveModelType": null,
		"anchorzoneModelType": null,
		"broadcastName": null,
		"broadcastId": null,
		"switchStatus": null,
		"focusIcon": null,
		"unfocusIcon": null,
		"isAnchorPerson": "1",
		"downDes": "云听声工厂是云听官方频道，融合中央广播电视总台优势资源，打造优质声音产品，严选精品内容。",
		"hostTotal": 20899,
		"descriptionSimple": null,
		"shareUrl": null,
		"roleNameForAlbum": "制作人",
		"liveStatus": 0,
		"liveId": null,
		"isPugcAnchor": 0,
		"accid": "2501020100078816",
		"authType": 3
	}],
	"listenType": 0,
	"expireDate": null,
	"albumCollection": null,
	"descriptionSimple": "唐家三少玄幻巨作，满超、徐佳琦倾情演绎。",
	"columnAnchorInfo": {
		"id": "15266",
		"anchorpersonId": "502",
		"anchorpersonName": "云听声工厂",
		"anchorpersonPic": "https://ytmedia.radio.cn/CCYT%2F202002%2F26%2F15%2FDxa6h4MMUY1CMvnl6kjZkzoO6zlQCgCjx6ygw2DOqZIwr2020022615670.jpg",
		"bgUrl": null,
		"fansNickName": null,
		"fansNum": 0,
		"isFollow": 0,
		"levelIcon": null,
		"ifHasLive": 0,
		"broadcastModel": null,
		"interactiveModelType": null,
		"anchorzoneModelType": null,
		"broadcastName": null,
		"broadcastId": null,
		"switchStatus": null,
		"focusIcon": null,
		"unfocusIcon": null,
		"isAnchorPerson": "2",
		"downDes": "云听声工厂是云听官方频道，融合中央广播电视总台优势资源，打造优质声音产品，严选精品内容。",
		"hostTotal": 20899,
		"descriptionSimple": "制作好内容，享受好声音",
		"shareUrl": null,
		"roleNameForAlbum": "归属人",
		"liveStatus": 0,
		"liveId": null,
		"isPugcAnchor": 0,
		"accid": null,
		"authType": 3
	},
	"expire": 0,
	"expireStart": "2021-02-01 00:00:00",
	"expireEnd": "2031-01-31 23:59:59",
	"isOver": 0,
	"contentType": 2,
	"songNeedPay": 1,
	"containAuditionSong": 1,
	"hadPurchasedSong": 0,
	"notPurchasedSongCount": 964,
	"pubstate": 1,
	"posterInfo": {
		"id": 16179401055300,
		"type": 0,
		"imgUrl": "https://ytmedia.radio.cn/CCYT%2F202104%2F09%2F18%2FDX2021040918851.jpg",
		"title": "斗罗大陆2绝世唐门",
		"describe": "唐家三少玄幻巨作，满超、徐佳琦倾情演绎。",
		"source": null,
		"color": null,
		"createTime": null,
		"channelImgUrl": null,
		"contentType": 0,
		"description": null
	},
	"chechStatus": 1,
	"historyPo": {
		"id": null,
		"columnId": 16179401055300,
		"price": null,
		"needPay": null,
		"songNeedPay": null,
		"startTime": null,
		"endTime": null,
		"operation": null,
		"reviewer": null,
		"states": null,
		"reviewerTime": null,
		"reviewerReason": null,
		"note": null,
		"charge": null,
		"applicationTime": null,
		"expiretime": null,
		"sharefreenum": null,
		"oldPrice": null,
		"oldCharge": null,
		"promotionType": 1,
		"promotionStaTime": null,
		"promotionEndTime": null,
		"planShowNum": null,
		"promotionPrice": null
	},
	"foreverHear": 1,
	"canLode": 1,
	"commentStatus": 0,
	"shareFreeNum": 0,
	"atypeInfo": [{
		"categoryName": "精品",
		"categoryId": 1369
	}, {
		"categoryName": "多人播",
		"categoryId": 674
	}, {
		"categoryName": "游戏",
		"categoryId": 148
	}, {
		"categoryName": "热门影视剧",
		"categoryId": 830
	}, {
		"categoryName": "玄幻",
		"categoryId": 5
	}, {
		"categoryName": "多人有声剧",
		"categoryId": 404
	}, {
		"categoryName": "随时听",
		"categoryId": 1361
	}, {
		"categoryName": "听书专区",
		"categoryId": 61
	}, {
		"categoryName": "修真",
		"categoryId": 639
	}],
	"updateTime": "2022-06-14 11:19:14",
	"type": "6",
	"sortType": 1,
	"coverLong": null,
	"coverSquare": null,
	"isVip": 0,
	"shareUrl": "https://ytweb.radio.cn/share/albumDetail?columnId\u003d16179401055300",
	"subscribeNum": 15663,
	"ownerNickName": "云听声工厂",
	"ownerIcon": "https://ytmedia.radio.cn/CCYT%2F202002%2F26%2F15%2FDxa6h4MMUY1CMvnl6kjZkzoO6zlQCgCjx6ygw2DOqZIwr2020022615670.jpg",
	"totalPage": 57,
	"count": 1123,
	"currentPage": 56,
	"perPage": 20,
	"con": [{
		"id": "1810380",
		"name": "斗罗大陆II 1112 不要挣扎了天海城",
		"index": 1121,
		"providerName": "本台",
		"playUrl": "https://ytmedia.radio.cn/CCYT%2F2022%2F06%2F11%2F1654935369b386d295f29bacd69776fd587c04450al.mp3",
		"playUrlHigh": "https://ytmedia.radio.cn/CCYT%2F2022%2F06%2F11%2F1654935369b386d295f29bacd69776fd587c04450ah.mp3",
		"artist": null,
		"listenNum": 754,
		"replyNum": 4,
		"logoUrl": "https://ytmedia.radio.cn/CCYT%2F202104%2F09%2F18%2FDX2021040918851.jpg",
		"songLogo": null,
		"isCollect": 1,
		"anchorperson": "云听声工厂,秋实",
		"anchorpersonList": null,
		"columnId": "16179401055300",
		"duration": "14:51",
		"columnName": null,
		"columnLogo": null,
		"descriptionSimple": null,
		"ifDownload": 1,
		"isPraise": 0,
		"praiseCount": null,
		"isAudition": 0,
		"isExpired": 0,
		"isPurchased": 0,
		"needPay": 0,
		"listenType": 0,
		"promotionType": 1,
		"shareFreeNum": null,
		"createTime": "2022-06-16 00:00:38",
		"publishTime": null,
		"downloadUrl": "https://ytmedia.radio.cn/CCYT%2F2022%2F06%2F11%2F1654935369b386d295f29bacd69776fd587c04450al.mp3",
		"fileSize": "7128776",
		"playUrlMedium": "https://ytmedia.radio.cn/CCYT%2F2022%2F06%2F11%2F1654935369b386d295f29bacd69776fd587c04450ah.mp3",
		"coverLong": null,
		"coverSquare": null,
		"sDescription": "",
		"isVip": 0,
		"shareUrl": null,
		"expire": 0,
		"expireStart": null,
		"expireEnd": null,
		"subscribeTime": null,
		"startTime": null,
		"endTime": null,
		"contentType": 0,
		"albumContentType": 0,
		"albumDescription": null,
		"columnPubState": 1,
		"songPubState": 1,
		"columnCheckStatus": 1,
		"songCheckStatus": 1,
		"songDeleteStatus": null,
		"songVirtualPrice": 0.30,
		"songNeedPay": 1,
		"isSongPurchased": 0,
		"songId": null,
		"topState": null,
		"shareLogo": null,
		"radioLogo": null,
		"portraitPath": null,
		"horizontalPath": null,
		"vehiclePath": null,
		"topPath": null,
		"newsContentUrl": null,
		"radioId": null,
		"radioName": null,
		"headLogo": null,
		"backColor": null,
		"tags": null,
		"classificationPath": null,
		"classificationName": null,
		"classificationId": null,
		"newsSource": null,
		"tagList": null,
		"announcer": null,
		"editor": null,
		"userNewsWeight": null,
		"playUrlEncode": "https://ytmedia.radio.cn/CCYT%2F2022%2F06%2F11%2F1654935369b386d295f29bacd69776fd587c04450al.mp3",
		"playUrlHighEncode": "https://ytmedia.radio.cn/CCYT%2F2022%2F06%2F11%2F1654935369b386d295f29bacd69776fd587c04450ah.mp3",
		"encodeStatus": 2,
		"resourceType": 10
	}, {
		"id": "1810382",
		"name": "斗罗大陆II 1113 迷茫的大陆气晕",
		"index": 1122,
		"providerName": "本台",
		"playUrl": "https://ytmedia.radio.cn/CCYT%2F2022%2F06%2F11%2F1654935445f30e401d1eee9022c956826b8ac1116bl.mp3",
		"playUrlHigh": "https://ytmedia.radio.cn/CCYT%2F2022%2F06%2F11%2F1654935445f30e401d1eee9022c956826b8ac1116bh.mp3",
		"artist": null,
		"listenNum": 708,
		"replyNum": 1,
		"logoUrl": "https://ytmedia.radio.cn/CCYT%2F202104%2F09%2F18%2FDX2021040918851.jpg",
		"songLogo": null,
		"isCollect": 1,
		"anchorperson": "云听声工厂,秋实",
		"anchorpersonList": null,
		"columnId": "16179401055300",
		"duration": "16:17",
		"columnName": null,
		"columnLogo": null,
		"descriptionSimple": null,
		"ifDownload": 1,
		"isPraise": 0,
		"praiseCount": null,
		"isAudition": 0,
		"isExpired": 0,
		"isPurchased": 0,
		"needPay": 0,
		"listenType": 0,
		"promotionType": 1,
		"shareFreeNum": null,
		"createTime": "2022-06-16 00:00:38",
		"publishTime": null,
		"downloadUrl": "https://ytmedia.radio.cn/CCYT%2F2022%2F06%2F11%2F1654935445f30e401d1eee9022c956826b8ac1116bl.mp3",
		"fileSize": "7818827",
		"playUrlMedium": "https://ytmedia.radio.cn/CCYT%2F2022%2F06%2F11%2F1654935445f30e401d1eee9022c956826b8ac1116bh.mp3",
		"coverLong": null,
		"coverSquare": null,
		"sDescription": "",
		"isVip": 0,
		"shareUrl": null,
		"expire": 0,
		"expireStart": null,
		"expireEnd": null,
		"subscribeTime": null,
		"startTime": null,
		"endTime": null,
		"contentType": 0,
		"albumContentType": 0,
		"albumDescription": null,
		"columnPubState": 1,
		"songPubState": 1,
		"columnCheckStatus": 1,
		"songCheckStatus": 1,
		"songDeleteStatus": null,
		"songVirtualPrice": 0.30,
		"songNeedPay": 1,
		"isSongPurchased": 0,
		"songId": null,
		"topState": null,
		"shareLogo": null,
		"radioLogo": null,
		"portraitPath": null,
		"horizontalPath": null,
		"vehiclePath": null,
		"topPath": null,
		"newsContentUrl": null,
		"radioId": null,
		"radioName": null,
		"headLogo": null,
		"backColor": null,
		"tags": null,
		"classificationPath": null,
		"classificationName": null,
		"classificationId": null,
		"newsSource": null,
		"tagList": null,
		"announcer": null,
		"editor": null,
		"userNewsWeight": null,
		"playUrlEncode": "https://ytmedia.radio.cn/CCYT%2F2022%2F06%2F11%2F1654935445f30e401d1eee9022c956826b8ac1116bl.mp3",
		"playUrlHighEncode": "https://ytmedia.radio.cn/CCYT%2F2022%2F06%2F11%2F1654935445f30e401d1eee9022c956826b8ac1116bh.mp3",
		"encodeStatus": 2,
		"resourceType": 10
	}, {
		"id": "1810383",
		"name": "斗罗大陆II 1114 植物的精神力",
		"index": 1123,
		"providerName": "本台",
		"playUrl": "https://ytmedia.radio.cn/CCYT%2F2022%2F06%2F11%2F16549355205de34bad197a2a9f56ed1b85461f43c7l.mp3",
		"playUrlHigh": "https://ytmedia.radio.cn/CCYT%2F2022%2F06%2F11%2F16549355205de34bad197a2a9f56ed1b85461f43c7h.mp3",
		"artist": null,
		"listenNum": 745,
		"replyNum": 2,
		"logoUrl": "https://ytmedia.radio.cn/CCYT%2F202104%2F09%2F18%2FDX2021040918851.jpg",
		"songLogo": null,
		"isCollect": 1,
		"anchorperson": "云听声工厂,秋实",
		"anchorpersonList": null,
		"columnId": "16179401055300",
		"duration": "14:32",
		"columnName": null,
		"columnLogo": null,
		"descriptionSimple": null,
		"ifDownload": 1,
		"isPraise": 0,
		"praiseCount": null,
		"isAudition": 0,
		"isExpired": 0,
		"isPurchased": 0,
		"needPay": 0,
		"listenType": 0,
		"promotionType": 1,
		"shareFreeNum": null,
		"createTime": "2022-06-16 00:00:38",
		"publishTime": null,
		"downloadUrl": "https://ytmedia.radio.cn/CCYT%2F2022%2F06%2F11%2F16549355205de34bad197a2a9f56ed1b85461f43c7l.mp3",
		"fileSize": "6983745",
		"playUrlMedium": "https://ytmedia.radio.cn/CCYT%2F2022%2F06%2F11%2F16549355205de34bad197a2a9f56ed1b85461f43c7h.mp3",
		"coverLong": null,
		"coverSquare": null,
		"sDescription": "",
		"isVip": 0,
		"shareUrl": null,
		"expire": 0,
		"expireStart": null,
		"expireEnd": null,
		"subscribeTime": null,
		"startTime": null,
		"endTime": null,
		"contentType": 0,
		"albumContentType": 0,
		"albumDescription": null,
		"columnPubState": 1,
		"songPubState": 1,
		"columnCheckStatus": 1,
		"songCheckStatus": 1,
		"songDeleteStatus": null,
		"songVirtualPrice": 0.30,
		"songNeedPay": 1,
		"isSongPurchased": 0,
		"songId": null,
		"topState": null,
		"shareLogo": null,
		"radioLogo": null,
		"portraitPath": null,
		"horizontalPath": null,
		"vehiclePath": null,
		"topPath": null,
		"newsContentUrl": null,
		"radioId": null,
		"radioName": null,
		"headLogo": null,
		"backColor": null,
		"tags": null,
		"classificationPath": null,
		"classificationName": null,
		"classificationId": null,
		"newsSource": null,
		"tagList": null,
		"announcer": null,
		"editor": null,
		"userNewsWeight": null,
		"playUrlEncode": "https://ytmedia.radio.cn/CCYT%2F2022%2F06%2F11%2F16549355205de34bad197a2a9f56ed1b85461f43c7l.mp3",
		"playUrlHighEncode": "https://ytmedia.radio.cn/CCYT%2F2022%2F06%2F11%2F16549355205de34bad197a2a9f56ed1b85461f43c7h.mp3",
		"encodeStatus": 2,
		"resourceType": 10
	}],
	"rt": 1,
	"des": "获取成功"
}